%YAML 1.1
%TAG !u! tag:unity3d.com,2011:
--- !u!65 &7340125478887031017
BoxCollider:
  m_ObjectHideFlags: 0
  m_CorrespondingSourceObject: {fileID: 0}
  m_PrefabInstance: {fileID: 0}
  m_PrefabAsset: {fileID: 0}
  m_GameObject: {fileID: 5060945163794873228}
  m_Material: {fileID: 0}
  m_IsTrigger: 0
  m_Enabled: 1
  serializedVersion: 2
  m_Size: {x: 1, y: 1, z: 1}
  m_Center: {x: 0, y: 0, z: 0}
--- !u!1 &6187723845217966023
GameObject:
  m_ObjectHideFlags: 0
  m_CorrespondingSourceObject: {fileID: 0}
  m_PrefabInstance: {fileID: 0}
  m_PrefabAsset: {fileID: 0}
  serializedVersion: 6
  m_Component:
  - component: {fileID: 3920233865258759080}
  - component: {fileID: 3744533209668905163}
  - component: {fileID: 7971999558110002195}
  - component: {fileID: 6575784258897242850}
  m_Layer: 0
  m_Name: Cube
  m_TagString: Untagged
  m_Icon: {fileID: 0}
  m_NavMeshLayer: 0
  m_StaticEditorFlags: 0
  m_IsActive: 1
--- !u!4 &3920233865258759080
Transform:
  m_ObjectHideFlags: 0
  m_CorrespondingSourceObject: {fileID: 0}
  m_PrefabInstance: {fileID: 0}
  m_PrefabAsset: {fileID: 0}
  m_GameObject: {fileID: 6187723845217966023}
  m_LocalRotation: {x: 0, y: 0, z: 0, w: 1}
  m_LocalPosition: {x: -0.265, y: -0.29, z: 0}
  m_LocalScale: {x: 0.47140253, y: 1.4655, z: 1.1569}
  m_Children: []
  m_Father: {fileID: 8796034656100703393}
  m_RootOrder: 0
  m_LocalEulerAnglesHint: {x: 0, y: 0, z: 0}
--- !u!33 &3744533209668905163
MeshFilter:
  m_ObjectHideFlags: 0
  m_CorrespondingSourceObject: {fileID: 0}
  m_PrefabInstance: {fileID: 0}
  m_PrefabAsset: {fileID: 0}
  m_GameObject: {fileID: 6187723845217966023}
  m_Mesh: {fileID: 10202, guid: 0000000000000000e000000000000000, type: 0}
--- !u!23 &7971999558110002195
MeshRenderer:
  m_ObjectHideFlags: 0
  m_CorrespondingSourceObject: {fileID: 0}
  m_PrefabInstance: {fileID: 0}
  m_PrefabAsset: {fileID: 0}
  m_GameObject: {fileID: 6187723845217966023}
  m_Enabled: 1
  m_CastShadows: 1
  m_ReceiveShadows: 1
  m_DynamicOccludee: 1
  m_MotionVectors: 1
  m_LightProbeUsage: 1
  m_ReflectionProbeUsage: 1
  m_RenderingLayerMask: 1
  m_RendererPriority: 0
  m_Materials:
  - {fileID: 2100000, guid: a18ba3903368b064895319e18d9882a0, type: 2}
  m_StaticBatchInfo:
    firstSubMesh: 0
    subMeshCount: 0
  m_StaticBatchRoot: {fileID: 0}
  m_ProbeAnchor: {fileID: 0}
  m_LightProbeVolumeOverride: {fileID: 0}
  m_ScaleInLightmap: 1
  m_ReceiveGI: 1
  m_PreserveUVs: 0
  m_IgnoreNormalsForChartDetection: 0
  m_ImportantGI: 0
  m_StitchLightmapSeams: 1
  m_SelectedEditorRenderState: 3
  m_MinimumChartSize: 4
  m_AutoUVMaxDistance: 0.5
  m_AutoUVMaxAngle: 89
  m_LightmapParameters: {fileID: 0}
  m_SortingLayerID: 0
  m_SortingLayer: 0
  m_SortingOrder: 0
--- !u!65 &6575784258897242850
BoxCollider:
  m_ObjectHideFlags: 0
  m_CorrespondingSourceObject: {fileID: 0}
  m_PrefabInstance: {fileID: 0}
  m_PrefabAsset: {fileID: 0}
  m_GameObject: {fileID: 6187723845217966023}
  m_Material: {fileID: 0}
  m_IsTrigger: 0
  m_Enabled: 1
  serializedVersion: 2
  m_Size: {x: 1, y: 1, z: 1}
  m_Center: {x: 0, y: 0, z: 0}
--- !u!1001 &1981903850846204835
PrefabInstance:
  m_ObjectHideFlags: 0
  serializedVersion: 2
  m_Modification:
    m_TransformParent: {fileID: 0}
    m_Modifications:
    - target: {fileID: 6754614126604175407, guid: 46c905278a98aa74c8f1b427d0800504,
        type: 3}
      propertyPath: m_Name
      value: Item_Knife
      objectReference: {fileID: 0}
    - target: {fileID: -5216356118756571275, guid: 46c905278a98aa74c8f1b427d0800504,
        type: 3}
      propertyPath: m_Materials.Array.data[0]
      value: 
      objectReference: {fileID: 2100000, guid: 0ba209480bd313c4ba7deac395c4abdf, type: 2}
    - target: {fileID: 7030376200233217794, guid: 46c905278a98aa74c8f1b427d0800504,
        type: 3}
      propertyPath: m_LocalPosition.x
      value: 0
      objectReference: {fileID: 0}
    - target: {fileID: 7030376200233217794, guid: 46c905278a98aa74c8f1b427d0800504,
        type: 3}
      propertyPath: m_LocalPosition.y
      value: 0
      objectReference: {fileID: 0}
    - target: {fileID: 7030376200233217794, guid: 46c905278a98aa74c8f1b427d0800504,
        type: 3}
      propertyPath: m_LocalPosition.z
      value: 0
      objectReference: {fileID: 0}
    - target: {fileID: 7030376200233217794, guid: 46c905278a98aa74c8f1b427d0800504,
        type: 3}
      propertyPath: m_LocalRotation.x
      value: 0
      objectReference: {fileID: 0}
    - target: {fileID: 7030376200233217794, guid: 46c905278a98aa74c8f1b427d0800504,
        type: 3}
      propertyPath: m_LocalRotation.y
      value: 0
      objectReference: {fileID: 0}
    - target: {fileID: 7030376200233217794, guid: 46c905278a98aa74c8f1b427d0800504,
        type: 3}
      propertyPath: m_LocalRotation.z
      value: 0
      objectReference: {fileID: 0}
    - target: {fileID: 7030376200233217794, guid: 46c905278a98aa74c8f1b427d0800504,
        type: 3}
      propertyPath: m_LocalRotation.w
      value: 1
      objectReference: {fileID: 0}
    - target: {fileID: 7030376200233217794, guid: 46c905278a98aa74c8f1b427d0800504,
        type: 3}
      propertyPath: m_RootOrder
      value: 0
      objectReference: {fileID: 0}
    - target: {fileID: 7030376200233217794, guid: 46c905278a98aa74c8f1b427d0800504,
        type: 3}
      propertyPath: m_LocalEulerAnglesHint.x
      value: 0
      objectReference: {fileID: 0}
    - target: {fileID: 7030376200233217794, guid: 46c905278a98aa74c8f1b427d0800504,
        type: 3}
      propertyPath: m_LocalEulerAnglesHint.y
      value: 0
      objectReference: {fileID: 0}
    - target: {fileID: 7030376200233217794, guid: 46c905278a98aa74c8f1b427d0800504,
        type: 3}
      propertyPath: m_LocalEulerAnglesHint.z
      value: 0
      objectReference: {fileID: 0}
    - target: {fileID: 7030376200233217794, guid: 46c905278a98aa74c8f1b427d0800504,
        type: 3}
      propertyPath: m_LocalScale.z
      value: 0.01
      objectReference: {fileID: 0}
    - target: {fileID: 7030376200233217794, guid: 46c905278a98aa74c8f1b427d0800504,
        type: 3}
      propertyPath: m_LocalScale.y
      value: 0.1
      objectReference: {fileID: 0}
    - target: {fileID: 7030376200233217794, guid: 46c905278a98aa74c8f1b427d0800504,
        type: 3}
      propertyPath: m_LocalScale.x
      value: 0.5
      objectReference: {fileID: 0}
    - target: {fileID: -3078443145854443344, guid: 46c905278a98aa74c8f1b427d0800504,
        type: 3}
      propertyPath: m_Mesh
      value: 
      objectReference: {fileID: 10202, guid: 0000000000000000e000000000000000, type: 0}
    m_RemovedComponents: []
  m_SourcePrefab: {fileID: 100100000, guid: 46c905278a98aa74c8f1b427d0800504, type: 3}
--- !u!1 &5060945163794873228 stripped
GameObject:
  m_CorrespondingSourceObject: {fileID: 6754614126604175407, guid: 46c905278a98aa74c8f1b427d0800504,
    type: 3}
  m_PrefabInstance: {fileID: 1981903850846204835}
  m_PrefabAsset: {fileID: 0}
--- !u!4 &8796034656100703393 stripped
Transform:
  m_CorrespondingSourceObject: {fileID: 7030376200233217794, guid: 46c905278a98aa74c8f1b427d0800504,
    type: 3}
  m_PrefabInstance: {fileID: 1981903850846204835}
  m_PrefabAsset: {fileID: 0}
